// Jest Snapshot v1, https://goo.gl/fbAQLP

exports[`App component renders correctly renders correctly 1`] = `
<div
  className="app sc-htpNat dEQUjC"
>
  <h1
    className="sc-ifAKCX iekNMo"
  />
  <form
    onSubmit={[Function]}
  >
    <label>
      <input
        className="sc-bxivhb hFZKLK"
        onChange={[Function]}
        placeholder="Enter a message"
        type="text"
        value=""
      />
    </label>
  </form>
  <div
    className="sc-bwzfXH NnWnK"
  />
</div>
`;
